{
  "project_info": {
    "project_number": "424467887650",
    "firebase_url": "https://tempshit-3a3a5.firebaseio.com",
    "project_id": "tempshit-3a3a5",
    "storage_bucket": "tempshit-3a3a5.appspot.com"
  },
  "client": [
    {
      "client_info": {
        "mobilesdk_app_id": "1:424467887650:android:419796b44ee1f06d",
        "android_client_info": {
          "package_name": "com.example.filip.tempshit"
        }
      },
      "oauth_client": [
        {
          "client_id": "424467887650-foditllsai19u00l18gh65uv5psn09te.apps.googleusercontent.com",
          "client_type": 1,
          "android_info": {
            "package_name": "com.example.filip.tempshit",
            "certificate_hash": "8e1ce5422b8b122bec9334ad918b7f531520579b"
          }
        },
        {
          "client_id": "424467887650-jt0jl4ambkm3qqm4hp7ogh5ritjub02a.apps.googleusercontent.com",
          "client_type": 3
        }
      ],
      "api_key": [
        {
          "current_key": "AIzaSyCKnJKjO2Y1LM7kfQQdbnrTuHOe3pcRgbE"
        }
      ],
      "services": {
        "analytics_service": {
          "status": 1
        },
        "appinvite_service": {
          "status": 2,
          "other_platform_oauth_client": [
            {
              "client_id": "424467887650-jt0jl4ambkm3qqm4hp7ogh5ritjub02a.apps.googleusercontent.com",
              "client_type": 3
            }
          ]
        },
        "ads_service": {
          "status": 2
        }
      }
    }
  ],
  "configuration_version": "1"
}